{
  "IsEncrypted": false,
  "Values": {
    "AzureWebJobsStorage": "UseDevelopmentStorage=true",
    "FUNCTIONS_WORKER_RUNTIME": "dotnet",
    "AzureSignalRConnectionString": "Endpoint=http://127.0.0.1;Port=8888;AccessKey=ABCDEFGHIJKLMNOPQRSTUVWXYZ0123456789ABCDEFGH;Version=1.0;",
    "AzureSignalRServiceTransportType": "Transient"
  },
  "ConnectionStrings": {},
  "Host": {
    "LocalHttpPort": 7071
  }
}